<svg width="16" height="16" viewBox="0 0 16 16" fill="none" xmlns="http://www.w3.org/2000/svg">
<path d="M8 0C3.58214 0 0 3.58214 0 8C0 12.4179 3.58214 16 8 16C12.4179 16 16 12.4179 16 8C16 3.58214 12.4179 0 8 0ZM8 14.6429C4.33214 14.6429 1.35714 11.6679 1.35714 8C1.35714 4.33214 4.33214 1.35714 8 1.35714C11.6679 1.35714 14.6429 4.33214 14.6429 8C14.6429 11.6679 11.6679 14.6429 8 14.6429Z" fill="#9DA3B3"/>
<path d="M9.99257 4.51243C9.45685 4.04279 8.74971 3.78564 7.99971 3.78564C7.24972 3.78564 6.54257 4.04457 6.00686 4.51243C5.44972 4.99993 5.14258 5.65529 5.14258 6.35708V6.49279C5.14258 6.57136 5.20686 6.63565 5.28543 6.63565H6.14258C6.22115 6.63565 6.28543 6.57136 6.28543 6.49279V6.35708C6.28543 5.56958 7.05507 4.9285 7.99971 4.9285C8.94435 4.9285 9.714 5.56958 9.714 6.35708C9.714 6.91243 9.32114 7.42136 8.71221 7.65529C8.33364 7.79994 8.01221 8.05351 7.78186 8.38565C7.54793 8.72494 7.4265 9.13208 7.4265 9.54458V9.92851C7.4265 10.0071 7.49079 10.0714 7.56936 10.0714H8.4265C8.50507 10.0714 8.56936 10.0071 8.56936 9.92851V9.52315C8.57028 9.3498 8.62342 9.18074 8.72185 9.03804C8.82028 8.89533 8.95942 8.7856 9.12114 8.72315C10.1747 8.31779 10.8551 7.38922 10.8551 6.35708C10.8569 5.65529 10.5497 4.99993 9.99257 4.51243ZM7.28543 11.9285C7.28543 12.118 7.36068 12.2996 7.49464 12.4336C7.62859 12.5675 7.81027 12.6428 7.99971 12.6428C8.18915 12.6428 8.37084 12.5675 8.50479 12.4336C8.63874 12.2996 8.714 12.118 8.714 11.9285C8.714 11.7391 8.63874 11.5574 8.50479 11.4234C8.37084 11.2895 8.18915 11.2142 7.99971 11.2142C7.81027 11.2142 7.62859 11.2895 7.49464 11.4234C7.36068 11.5574 7.28543 11.7391 7.28543 11.9285Z" fill="#9DA3B3"/>
</svg>
