<svg width="16" height="16" viewBox="0 0 16 16" fill="none" xmlns="http://www.w3.org/2000/svg">
<rect x="9" y="9" width="7" height="7" fill="#CED1D9"/>
<rect x="9" width="7" height="7" fill="#CED1D9"/>
<rect y="9" width="7" height="7" fill="#CED1D9"/>
</svg>
